{
  "files": ["LICENSE", "fit-convert.xml"],
  "main": "fit-convert.php",
  "output": "bin/fit-convert.phar",
  "git-commit": "git-commit",
  "finder": [
    {
      "name": ["*.php", "*.rng"],
      "exclude": ["Test", "test", "Tests", "tests", "docs"],
      "in": ["vendor", "includes"]
    }
  ],
  "compactors": [
    "KevinGH\\Box\\Compactor\\Php"
  ],
  "compression": "GZ"
}